Web Scraping mit R - Crashkurs
…
# Nachteile

- ausführlich (Tippfehler!)
- viele Kopien eines Datensatzes
- redundant

Weitere Möglichkeit:

```r
arrange(filter(mutate(select(studium.df, name, anzahl_kinos, einwohnerzahl_stadt), kino_pc = anzahl_kinos / einwohnerzahl_stadt), kino_pc > median(kino_pc, na.rm = TRUE)), desc(kino_pc))
```

```
## # A tibble: 27 x 4
##    name                     anzahl_kinos einwohnerzahl_stadt   kino_pc
##    <chr>                           <dbl>               <dbl>     <dbl>
##  1 ku-eichstaett-ingolstadt            5               13100 0.000382 
##  2 uni-freiburg-schweiz               13               38732 0.000336 
##  3 fau-erlangen-nuernberg              9              107500 0.0000837
##  4 tu-ilmenau                          2               28962 0.0000691
##  5 uni-weimar                          4               63315 0.0000632
##  6 uni-tuebingen                       4               85500 0.0000468
##  7 uni-zuerich                        15              366765 0.0000409
##  8 dhbw-ravensburg                     2               49098 0.0000407
##  9 uni-bamberg                         3               75743 0.0000396
## 10 zeppelin-uni                        2               59000 0.0000339
## # ... with 17 more rows
```
…
